{
  "count": 71005,
  "next": "https://gutendex.com/books/?page=2",
  "previous": null,
  "results": [
    {
      "id": 1513,
      "title": "Romeo and Juliet",
      "authors": [
        {
          "name": "Shakespeare, William",
          "birth_year": 1564,
          "death_year": 1616
        }
      ],
      "translators": [],
      "subjects": [
        "Conflict of generations -- Drama",
        "Juliet (Fictitious character) -- Drama",
        "Romeo (Fictitious character) -- Drama",
        "Tragedies",
        "Vendetta -- Drama",
        "Verona (Italy) -- Drama",
        "Youth -- Drama"
      ],
      "bookshelves": [],
      "languages": [
        "en"
      ],
      "copyright": false,
      "media_type": "Text",
      "formats": {
        "application/x-mobipocket-ebook": "https://www.gutenberg.org/ebooks/1513.kf8.images",
        "application/epub+zip": "https://www.gutenberg.org/ebooks/1513.epub3.images",
        "text/html": "https://www.gutenberg.org/ebooks/1513.html.images",
        "application/octet-stream": "https://www.gutenberg.org/files/1513/1513-0.zip",
        "image/jpeg": "https://www.gutenberg.org/cache/epub/1513/pg1513.cover.medium.jpg",
        "text/plain": "https://www.gutenberg.org/ebooks/1513.txt.utf-8",
        "text/plain; charset=us-ascii": "https://www.gutenberg.org/files/1513/1513-0.txt",
        "application/rdf+xml": "https://www.gutenberg.org/ebooks/1513.rdf"
      },
      "download_count": 78258
    },
    {
      "id": 2701,
      "title": "Moby Dick; Or, The Whale",
      "authors": [
        {
          "name": "Melville, Herman",
          "birth_year": 1819,
          "death_year": 1891
        }
      ],
      "translators": [],
      "subjects": [
        "Adventure stories",
        "Ahab, Captain (Fictitious character) -- Fiction",
        "Mentally ill -- Fiction",
        "Psychological fiction",
        "Sea stories",
        "Ship captains -- Fiction",
        "Whales -- Fiction",
        "Whaling -- Fiction",
        "Whaling ships -- Fiction"
      ],
      "bookshelves": [
        "Best Books Ever Listings"
      ],
      "languages": [
        "en"
      ],
      "copyright": false,
      "media_type": "Text",
      "formats": {
        "application/x-mobipocket-ebook": "https://www.gutenberg.org/ebooks/2701.kf8.images",
        "application/epub+zip": "https://www.gutenberg.org/ebooks/2701.epub3.images",
        "image/jpeg": "https://www.gutenberg.org/cache/epub/2701/pg2701.cover.medium.jpg",
        "text/html; charset=utf-8": "https://www.gutenberg.org/files/2701/2701-h/2701-h.htm",
        "text/plain; charset=utf-8": "https://www.gutenberg.org/files/2701/2701-0.txt",
        "text/html": "https://www.gutenberg.org/ebooks/2701.html.images",
        "application/rdf+xml": "https://www.gutenberg.org/ebooks/2701.rdf"
      },
      "download_count": 73331
    },
    {
      "id": 2641,
      "title": "A Room with a View",
      "authors": [
        {
          "name": "Forster, E. M. (Edward Morgan)",
          "birth_year": 1879,
          "death_year": 1970
        }
      ],
      "translators": [],
      "subjects": [
        "British -- Italy -- Fiction",
        "England -- Fiction",
        "Florence (Italy) -- Fiction",
        "Humorous stories",
        "Young women -- Fiction"
      ],
      "bookshelves": [
        "Italy"
      ],
      "languages": [
        "en"
      ],
      "copyright": false,
      "media_type": "Text",
      "formats": {
        "text/plain": "https://www.gutenberg.org/ebooks/2641.txt.utf-8",
        "application/x-mobipocket-ebook": "https://www.gutenberg.org/ebooks/2641.kf8.images",
        "text/html": "https://www.gutenberg.org/ebooks/2641.html.images",
        "application/octet-stream": "https://www.gutenberg.org/files/2641/2641-0.zip",
        "text/plain; charset=us-ascii": "https://www.gutenberg.org/files/2641/2641-0.txt",
        "application/epub+zip": "https://www.gutenberg.org/ebooks/2641.epub3.images",
        "image/jpeg": "https://www.gutenberg.org/cache/epub/2641/pg2641.cover.medium.jpg",
        "application/rdf+xml": "https://www.gutenberg.org/ebooks/2641.rdf"
      },
      "download_count": 65998
    },
    {
      "id": 145,
      "title": "Middlemarch",
      "authors": [
        {
          "name": "Eliot, George",
          "birth_year": 1819,
          "death_year": 1880
        }
      ],
      "translators": [],
      "subjects": [
        "Bildungsromans",
        "City and town life -- Fiction",
        "Didactic fiction",
        "Domestic fiction",
        "England -- Fiction",
        "Love stories",
        "Married people -- Fiction",
        "Young women -- Fiction"
      ],
      "bookshelves": [
        "Best Books Ever Listings",
        "Historical Fiction"
      ],
      "languages": [
        "en"
      ],
      "copyright": false,
      "media_type": "Text",
      "formats": {
        "application/x-mobipocket-ebook": "https://www.gutenberg.org/ebooks/145.kf8.images",
        "application/epub+zip": "https://www.gutenberg.org/ebooks/145.epub3.images",
        "text/html": "https://www.gutenberg.org/ebooks/145.html.images",
        "application/octet-stream": "https://www.gutenberg.org/files/145/145-0.zip",
        "text/plain": "https://www.gutenberg.org/ebooks/145.txt.utf-8",
        "image/jpeg": "https://www.gutenberg.org/cache/epub/145/pg145.cover.medium.jpg",
        "text/plain; charset=us-ascii": "https://www.gutenberg.org/files/145/145-0.txt",
        "application/rdf+xml": "https://www.gutenberg.org/ebooks/145.rdf"
      },
      "download_count": 65128
    },
    {
      "id": 37106,
      "title": "Little Women; Or, Meg, Jo, Beth, and Amy",
      "authors": [
        {
          "name": "Alcott, Louisa May",
          "birth_year": 1832,
          "death_year": 1888
        }
      ],
      "translators": [],
      "subjects": [
        "Autobiographical fiction",
        "Bildungsromans",
        "Domestic fiction",
        "Family life -- New England -- Fiction",
        "March family (Fictitious characters) -- Fiction",
        "Mothers and daughters -- Fiction",
        "New England -- Fiction",
        "Sisters -- Fiction",
        "Young women -- Fiction"
      ],
      "bookshelves": [],
      "languages": [
        "en"
      ],
      "copyright": false,
      "media_type": "Text",
      "formats": {
        "application/octet-stream": "https://www.gutenberg.org/files/37106/37106-0.zip",
        "text/plain; charset=us-ascii": "https://www.gutenberg.org/files/37106/37106-0.txt",
        "application/x-mobipocket-ebook": "https://www.gutenberg.org/ebooks/37106.kf8.images",
        "application/epub+zip": "https://www.gutenberg.org/ebooks/37106.epub3.images",
        "image/jpeg": "https://www.gutenberg.org/cache/epub/37106/pg37106.cover.medium.jpg",
        "text/html": "https://www.gutenberg.org/ebooks/37106.html.images",
        "application/rdf+xml": "https://www.gutenberg.org/ebooks/37106.rdf",
        "text/plain": "https://www.gutenberg.org/ebooks/37106.txt.utf-8"
      },
      "download_count": 63257
    },
    {
      "id": 100,
      "title": "The Complete Works of William Shakespeare",
      "authors": [
        {
          "name": "Shakespeare, William",
          "birth_year": 1564,
          "death_year": 1616
        }
      ],
      "translators": [],
      "subjects": [
        "English drama -- Early modern and Elizabethan, 1500-1600"
      ],
      "bookshelves": [
        "Plays"
      ],
      "languages": [
        "en"
      ],
      "copyright": false,
      "media_type": "Text",
      "formats": {
        "application/x-mobipocket-ebook": "https://www.gutenberg.org/ebooks/100.kf8.images",
        "application/epub+zip": "https://www.gutenberg.org/ebooks/100.epub3.images",
        "text/html": "https://www.gutenberg.org/ebooks/100.html.images",
        "application/octet-stream": "https://www.gutenberg.org/files/100/100-0.zip",
        "image/jpeg": "https://www.gutenberg.org/cache/epub/100/pg100.cover.medium.jpg",
        "text/plain; charset=us-ascii": "https://www.gutenberg.org/files/100/100-0.txt",
        "text/plain": "https://www.gutenberg.org/ebooks/100.txt.utf-8",
        "application/rdf+xml": "https://www.gutenberg.org/ebooks/100.rdf"
      },
      "download_count": 62315
    },
    {
      "id": 16389,
      "title": "The Enchanted April",
      "authors": [
        {
          "name": "Von Arnim, Elizabeth",
          "birth_year": 1866,
          "death_year": 1941
        }
      ],
      "translators": [],
      "subjects": [
        "British -- Italy -- Fiction",
        "Domestic fiction",
        "Female friendship -- Fiction",
        "Italy -- Fiction",
        "Love stories"
      ],
      "bookshelves": [
        "Bestsellers, American, 1895-1923"
      ],
      "languages": [
        "en"
      ],
      "copyright": false,
      "media_type": "Text",
      "formats": {
        "application/x-mobipocket-ebook": "https://www.gutenberg.org/ebooks/16389.kf8.images",
        "text/html": "https://www.gutenberg.org/ebooks/16389.html.images",
        "application/octet-stream": "https://www.gutenberg.org/files/16389/16389-0.zip",
        "text/plain; charset=us-ascii": "https://www.gutenberg.org/files/16389/16389-0.txt",
        "application/epub+zip": "https://www.gutenberg.org/ebooks/16389.epub3.images",
        "image/jpeg": "https://www.gutenberg.org/cache/epub/16389/pg16389.cover.medium.jpg",
        "text/plain": "https://www.gutenberg.org/ebooks/16389.txt.utf-8",
        "application/rdf+xml": "https://www.gutenberg.org/ebooks/16389.rdf"
      },
      "download_count": 58742
    },
    {
      "id": 67979,
      "title": "The Blue Castle: a novel",
      "authors": [
        {
          "name": "Montgomery, L. M. (Lucy Maud)",
          "birth_year": 1874,
          "death_year": 1942
        }
      ],
      "translators": [],
      "subjects": [
        "Canada -- History -- 1914-1945 -- Fiction",
        "Choice -- Fiction",
        "Love -- Fiction",
        "Romance fiction",
        "Self-actualization (Psychology) -- Fiction",
        "Single women -- Fiction",
        "Young adult fiction"
      ],
      "bookshelves": [],
      "languages": [
        "en"
      ],
      "copyright": false,
      "media_type": "Text",
      "formats": {
        "application/x-mobipocket-ebook": "https://www.gutenberg.org/ebooks/67979.kf8.images",
        "application/epub+zip": "https://www.gutenberg.org/ebooks/67979.epub3.images",
        "text/html": "https://www.gutenberg.org/ebooks/67979.html.images",
        "image/jpeg": "https://www.gutenberg.org/cache/epub/67979/pg67979.cover.medium.jpg",
        "application/octet-stream": "https://www.gutenberg.org/files/67979/67979-0.zip",
        "application/rdf+xml": "https://www.gutenberg.org/ebooks/67979.rdf",
        "text/plain": "https://www.gutenberg.org/ebooks/67979.txt.utf-8",
        "text/plain; charset=us-ascii": "https://www.gutenberg.org/files/67979/67979-0.txt"
      },
      "download_count": 58647
    },
    {
      "id": 6761,
      "title": "The Adventures of Ferdinand Count Fathom — Complete",
      "authors": [
        {
          "name": "Smollett, T. (Tobias)",
          "birth_year": 1721,
          "death_year": 1771
        }
      ],
      "translators": [],
      "subjects": [
        "Adventure stories",
        "Gothic fiction"
      ],
      "bookshelves": [
        "Best Books Ever Listings"
      ],
      "languages": [
        "en"
      ],
      "copyright": false,
      "media_type": "Text",
      "formats": {
        "text/plain": "https://www.gutenberg.org/ebooks/6761.txt.utf-8",
        "application/octet-stream": "https://www.gutenberg.org/files/6761/6761-0.zip",
        "text/plain; charset=us-ascii": "https://www.gutenberg.org/files/6761/6761-0.txt",
        "application/x-mobipocket-ebook": "https://www.gutenberg.org/ebooks/6761.kf8.images",
        "application/epub+zip": "https://www.gutenberg.org/ebooks/6761.epub3.images",
        "image/jpeg": "https://www.gutenberg.org/cache/epub/6761/pg6761.cover.medium.jpg",
        "text/html": "https://www.gutenberg.org/ebooks/6761.html.images",
        "application/rdf+xml": "https://www.gutenberg.org/ebooks/6761.rdf"
      },
      "download_count": 56027
    },
    {
      "id": 394,
      "title": "Cranford",
      "authors": [
        {
          "name": "Gaskell, Elizabeth Cleghorn",
          "birth_year": 1810,
          "death_year": 1865
        }
      ],
      "translators": [],
      "subjects": [
        "England -- Fiction",
        "Female friendship -- Fiction",
        "Older women -- Fiction",
        "Pastoral fiction",
        "Sisters -- Fiction",
        "Villages -- Fiction"
      ],
      "bookshelves": [],
      "languages": [
        "en"
      ],
      "copyright": false,
      "media_type": "Text",
      "formats": {
        "application/x-mobipocket-ebook": "https://www.gutenberg.org/ebooks/394.kf8.images",
        "application/epub+zip": "https://www.gutenberg.org/ebooks/394.epub3.images",
        "text/html": "https://www.gutenberg.org/ebooks/394.html.images",
        "application/octet-stream": "https://www.gutenberg.org/files/394/394-0.zip",
        "image/jpeg": "https://www.gutenberg.org/cache/epub/394/pg394.cover.medium.jpg",
        "text/plain": "https://www.gutenberg.org/ebooks/394.txt.utf-8",
        "text/plain; charset=us-ascii": "https://www.gutenberg.org/files/394/394-0.txt",
        "application/rdf+xml": "https://www.gutenberg.org/ebooks/394.rdf"
      },
      "download_count": 55619
    },
    {
      "id": 2160,
      "title": "The Expedition of Humphry Clinker",
      "authors": [
        {
          "name": "Smollett, T. (Tobias)",
          "birth_year": 1721,
          "death_year": 1771
        }
      ],
      "translators": [],
      "subjects": [
        "Epistolary fiction",
        "Great Britain -- Fiction",
        "Travelers -- Fiction"
      ],
      "bookshelves": [
        "Best Books Ever Listings",
        "Historical Fiction"
      ],
      "languages": [
        "en"
      ],
      "copyright": false,
      "media_type": "Text",
      "formats": {
        "application/x-mobipocket-ebook": "https://www.gutenberg.org/ebooks/2160.kf8.images",
        "application/epub+zip": "https://www.gutenberg.org/ebooks/2160.epub3.images",
        "image/jpeg": "https://www.gutenberg.org/cache/epub/2160/pg2160.cover.medium.jpg",
        "text/plain; charset=us-ascii": "https://www.gutenberg.org/files/2160/2160.txt",
        "text/plain; charset=utf-8": "https://www.gutenberg.org/files/2160/2160-0.txt",
        "text/html; charset=utf-8": "https://www.gutenberg.org/files/2160/2160-h/2160-h.htm",
        "text/html": "https://www.gutenberg.org/ebooks/2160.html.images",
        "application/rdf+xml": "https://www.gutenberg.org/ebooks/2160.rdf"
      },
      "download_count": 54973
  }
]
}
    

      
